…
# Exercise 1.4

``` r
gapminder  %>% 
  group_by(country)  %>% 
  filter(gdpPercap == max(gdpPercap))
```

    ## # A tibble: 142 x 6
    ## # Groups:   country [142]
    ##    country     continent  year lifeExp       pop gdpPercap
    ##    <fct>       <fct>     <int>   <dbl>     <int>     <dbl>
    ##  1 Afghanistan Asia       1982    39.9  12881816      978.
    ##  2 Albania     Europe     2007    76.4   3600523     5937.
    ##  3 Algeria     Africa     2007    72.3  33333216     6223.
    ##  4 Angola      Africa     1967    36.0   5247469     5523.
    ##  5 Argentina   Americas   2007    75.3  40301927    12779.
    ##  6 Australia   Oceania    2007    81.2  20434176    34435.
    ##  7 Austria     Europe     2007    79.8   8199783    36126.
    ##  8 Bahrain     Asia       2007    75.6    708573    29796.
    ##  9 Bangladesh  Asia       2007    64.1 150448339     1391.
    ## 10 Belgium     Europe     2007    79.4  10392226    33693.
    ## # … with 132 more rows
…
# Exercise 2.1

``` r
library(palmerpenguins)
palmerpenguins::penguins  %>% 
group_by( body_mass_g)  %>% 
summarize(mu = mean(body_mass_g), sigma = sd(body_mass_g))
```

    ## # A tibble: 95 x 3
    ##    body_mass_g    mu sigma
    ##  *       <int> <dbl> <dbl>
    ##  1        2700  2700    NA
    ##  2        2850  2850     0
    ##  3        2900  2900     0
    ##  4        2925  2925    NA
    ##  5        2975  2975    NA
    ##  6        3000  3000     0
    ##  7        3050  3050     0
    ##  8        3075  3075    NA
    ##  9        3100  3100    NA
    ## 10        3150  3150     0
    ## # … with 85 more rows
…
