…
``` r
print(weather_data)
```

    ## # A tibble: 365 x 13
    ##    date  actual_mean_temp actual_min_temp actual_max_temp average_min_temp
    ##    <chr>            <dbl>           <dbl>           <dbl>            <dbl>
    ##  1 2014…               81              70              91               67
    ##  2 2014…               85              74              95               68
    ##  3 2014…               82              71              93               68
    ##  4 2014…               75              64              86               68
    ##  5 2014…               72              60              84               68
    ##  6 2014…               74              61              87               68
    ##  7 2014…               79              67              91               68
    ##  8 2014…               83              72              94               68
    ##  9 2014…               80              71              89               68
    ## 10 2014…               78              71              85               68
    ## # … with 355 more rows, and 8 more variables: average_max_temp <dbl>,
    ## #   record_min_temp <dbl>, record_max_temp <dbl>, record_min_temp_year <dbl>,
    ## #   record_max_temp_year <dbl>, actual_precipitation <dbl>,
    ## #   average_precipitation <dbl>, record_precipitation <dbl>
…
\#The values of record precipitation are grouped together based on the
year they occured in.

``` r
df3 <- select(weather_data, date, record_precipitation)
  df3 %>% 
  mutate(date = as.Date(date)) %>% 
  mutate(y = format(date, '%Y')) %>% 
  group_by(y)
```

    ## # A tibble: 365 x 3
    ## # Groups:   y [2]
    ##    date       record_precipitation y    
    ##    <date>                    <dbl> <chr>
    ##  1 2014-07-01                 5.91 2014 
    ##  2 2014-07-02                 1.53 2014 
    ##  3 2014-07-03                 2.5  2014 
    ##  4 2014-07-04                 2.63 2014 
    ##  5 2014-07-05                 1.65 2014 
    ##  6 2014-07-06                 1.95 2014 
    ##  7 2014-07-07                 2.37 2014 
    ##  8 2014-07-08                 1.87 2014 
    ##  9 2014-07-09                 3.71 2014 
    ## 10 2014-07-10                 2.45 2014 
    ## # … with 355 more rows
…
